…
By adding `dplyr::group_by()` we can further disaggregate the missingness:

```r
penguins %>%
 dplyr::group_by(year) %>%
 miss_var_summary()
```

```
# A tibble: 21 × 4
# Groups:   year [3]
    year variable          n_miss pct_miss
   <int> <chr>              <int>    <num>
 1  2007 sex                    7    6.36 
 2  2007 bill_length_mm         1    0.909
 3  2007 bill_depth_mm          1    0.909
 4  2007 flipper_length_mm      1    0.909
 5  2007 body_mass_g            1    0.909
 6  2007 species                0    0    
 7  2007 island                 0    0    
 8  2008 sex                    1    0.877
 9  2008 species                0    0    
10  2008 island                 0    0    
# ℹ 11 more rows
# ℹ Use `print(n = ...)` to see more rows
```
…
