…
df_r_clean
```

```
# A tibble: 39 × 5
# Groups:   country [27]
   country treatment     n total percent
   <chr>   <chr>     <int> <int>   <dbl>
 1 AUT     No            3     3   100  
 2 BEL     No            5     6    83.3
 3 BEL     Yes           1     6    16.7
 4 BGR     No            2     4    50  
 5 BGR     Yes           2     4    50  
 6 BIH     No            1     1   100  
 7 CHE     No            4     7    57.1
 8 CHE     Yes           3     7    42.9
 9 CZE     No            1     1   100  
10 DEU     No           24    45    53.3
# … with 29 more rows
# ℹ Use `print(n = ...)` to see more rows
```
…
